F1,"First Note","First Subject","2016/08/01 15:18:00","2016/08/01 15:18:00",3
"First Item","First Item Text"
"Second Item","Second Item Text"
"Third Item","Third Item File Name","Third Item File Type"
2,"Second Note","Second Subject","2016/08/01 15:18:00","2016/08/01 15:18:00",1
"First Item","First Item Text"